{
  "project_info": {
    "project_number": "130354525610",
    "firebase_url": "https://darshan-portfolio.firebaseio.com",
    "project_id": "darshan-portfolio",
    "storage_bucket": "darshan-portfolio.appspot.com"
  },
  "client": [
    {
      "client_info": {
        "mobilesdk_app_id": "1:130354525610:android:2fbe78f49c1299aa",
        "android_client_info": {
          "package_name": "com.it.dwitiyabhatt.darshanportfolio"
        }
      },
      "oauth_client": [
        {
          "client_id": "130354525610-vap72s30fgg9mfd5g42e1g864vboigpj.apps.googleusercontent.com",
          "client_type": 1,
          "android_info": {
            "package_name": "com.it.dwitiyabhatt.darshanportfolio",
            "certificate_hash": "3cb9907ee8ead22d14243c347f494ced882165c2"
          }
        },
        {
          "client_id": "130354525610-9coumnfi2qvphmgrhdaoj119m2it7ija.apps.googleusercontent.com",
          "client_type": 3
        }
      ],
      "api_key": [
        {
          "current_key": "AIzaSyDasqtw7wxQfMeJkAYKZwLdoQbzxnJmWM0"
        }
      ],
      "services": {
        "analytics_service": {
          "status": 1
        },
        "appinvite_service": {
          "status": 2,
          "other_platform_oauth_client": [
            {
              "client_id": "130354525610-9coumnfi2qvphmgrhdaoj119m2it7ija.apps.googleusercontent.com",
              "client_type": 3
            }
          ]
        },
        "ads_service": {
          "status": 2
        }
      }
    }
  ],
  "configuration_version": "1"
}